<?xml version="1.0" encoding="UTF-8"?>
<svg width="50px" height="38px" viewBox="0 0 50 38" version="1.1" xmlns="http://www.w3.org/2000/svg" xmlns:xlink="http://www.w3.org/1999/xlink">
    <title>1EEFE3B8-EECF-401A-8A18-F486F44FF7D0</title>
    <g id="KWC" stroke="none" stroke-width="1" fill="none" fill-rule="evenodd">
        <g id="KWC-AR-page-3D" transform="translate(-36.000000, -37.000000)">
            <g id="Exit" transform="translate(36.000000, 37.000000)">
                <rect id="Rectangle" fill="#F0F0F0" x="0" y="0" width="50" height="38" rx="10"></rect>
                <g id="Times" transform="translate(17.000000, 11.000000)" stroke="#252525" stroke-linecap="square" stroke-width="1.57142857">
                    <line x1="0.499617357" y1="0.356760214" x2="15.5003826" y2="15.3575255" id="Line-Copy"></line>
                    <line x1="0.499617357" y1="0.356760214" x2="15.5003826" y2="15.3575255" id="Line-Copy" transform="translate(8.000000, 7.857143) scale(-1, 1) translate(-8.000000, -7.857143) "></line>
                </g>
            </g>
        </g>
    </g>
</svg>