{
    "key": "group_5f9c2084f3590",
    "title": "WebAR - Settings",
    "fields": [
        {
            "key": "field_5f9c2084f35dc",
            "label": "Button label",
            "name": "button_label",
            "type": "text",
            "instructions": "",
            "required": 0,
            "conditional_logic": 0,
            "wrapper": {
                "width": "50",
                "class": "",
                "id": ""
            },
            "wpml_cf_preferences": 2,
            "default_value": "",
            "placeholder": "",
            "prepend": "",
            "append": "",
            "maxlength": ""
        }
    ],
    "location": [
        [
            {
                "param": "page_template",
                "operator": "==",
                "value": "page-webar.php"
            }
        ]
    ],
    "menu_order": -1,
    "position": "normal",
    "style": "default",
    "label_placement": "top",
    "instruction_placement": "label",
    "hide_on_screen": [
        "the_content",
        "excerpt",
        "discussion",
        "comments",
        "featured_image",
        "categories",
        "send-trackbacks"
    ],
    "active": true,
    "description": "",
    "modified": 1604067461
}