{
    "key": "group_5d259d678c8ae",
    "title": "References Section",
    "fields": [
        {
            "key": "field_5d259d678c8f5",
            "label": "References Section Title",
            "name": "references_section_title",
            "type": "text",
            "instructions": "",
            "required": 0,
            "conditional_logic": 0,
            "wrapper": {
                "width": "",
                "class": "",
                "id": ""
            },
            "wpml_cf_preferences": 3,
            "default_value": "",
            "placeholder": "",
            "prepend": "",
            "append": "",
            "maxlength": ""
        },
        {
            "key": "field_5d259d678c931",
            "label": "References",
            "name": "references_section_references",
            "type": "post_object",
            "instructions": "",
            "required": 0,
            "conditional_logic": 0,
            "wrapper": {
                "width": "",
                "class": "",
                "id": ""
            },
            "wpml_cf_preferences": 3,
            "post_type": [
                "reference"
            ],
            "taxonomy": "",
            "allow_null": 0,
            "multiple": 1,
            "return_format": "id",
            "ui": 1
        },
        {
            "key": "field_5d259d678c96b",
            "label": "References Section Button Title",
            "name": "references_section_button_title",
            "type": "text",
            "instructions": "",
            "required": 0,
            "conditional_logic": 0,
            "wrapper": {
                "width": "",
                "class": "",
                "id": ""
            },
            "wpml_cf_preferences": 3,
            "default_value": "",
            "placeholder": "",
            "prepend": "",
            "append": "",
            "maxlength": ""
        },
        {
            "key": "field_5d259d678c9a5",
            "label": "References Section Button Category",
            "name": "references_section_button_category",
            "type": "taxonomy",
            "instructions": "",
            "required": 0,
            "conditional_logic": 0,
            "wrapper": {
                "width": "",
                "class": "",
                "id": ""
            },
            "wpml_cf_preferences": 3,
            "taxonomy": "reference_category",
            "field_type": "select",
            "allow_null": 1,
            "add_term": 0,
            "save_terms": 0,
            "load_terms": 0,
            "return_format": "object",
            "multiple": 0
        },
        {
            "key": "field_5d259d678c9e0",
            "label": "References Section Button Tag",
            "name": "references_section_button_tag",
            "type": "taxonomy",
            "instructions": "",
            "required": 0,
            "conditional_logic": 0,
            "wrapper": {
                "width": "",
                "class": "",
                "id": ""
            },
            "wpml_cf_preferences": 3,
            "taxonomy": "reference_tag",
            "field_type": "select",
            "allow_null": 1,
            "add_term": 0,
            "save_terms": 0,
            "load_terms": 0,
            "return_format": "object",
            "multiple": 0
        }
    ],
    "location": [
        [
            {
                "param": "page",
                "operator": "==",
                "value": "6520"
            }
        ],
        [
            {
                "param": "page",
                "operator": "==",
                "value": "6524"
            }
        ],
        [
            {
                "param": "page",
                "operator": "==",
                "value": "6590"
            }
        ],
        [
            {
                "param": "page",
                "operator": "==",
                "value": "6605"
            }
        ],
        [
            {
                "param": "page",
                "operator": "==",
                "value": "6608"
            }
        ],
        [
            {
                "param": "page",
                "operator": "==",
                "value": "6614"
            }
        ],
        [
            {
                "param": "page",
                "operator": "==",
                "value": "6611"
            }
        ],
        [
            {
                "param": "page",
                "operator": "==",
                "value": "6685"
            }
        ],
        [
            {
                "param": "post_template",
                "operator": "==",
                "value": "custom-single-app-cost-post.php"
            }
        ]
    ],
    "menu_order": 0,
    "position": "normal",
    "style": "default",
    "label_placement": "left",
    "instruction_placement": "label",
    "hide_on_screen": "",
    "active": true,
    "description": "",
    "modified": 1603782730
}