{
    "key": "group_5f0368e16d05d",
    "title": "WebAR - You choose",
    "fields": [
        {
            "key": "field_5f03712775770",
            "label": "",
            "name": "you_choose",
            "type": "group",
            "instructions": "",
            "required": 0,
            "conditional_logic": 0,
            "wrapper": {
                "width": "",
                "class": "",
                "id": ""
            },
            "wpml_cf_preferences": 1,
            "layout": "block",
            "sub_fields": [
                {
                    "key": "field_5f0368e17b5c5",
                    "label": "Title",
                    "name": "title",
                    "type": "textarea",
                    "instructions": "",
                    "required": 0,
                    "conditional_logic": 0,
                    "wrapper": {
                        "width": "50",
                        "class": "",
                        "id": ""
                    },
                    "wpml_cf_preferences": 2,
                    "default_value": "",
                    "placeholder": "",
                    "maxlength": "",
                    "rows": 2,
                    "new_lines": "br"
                },
                {
                    "key": "field_5f0368e19545a",
                    "label": "Lead",
                    "name": "lead",
                    "type": "textarea",
                    "instructions": "",
                    "required": 0,
                    "conditional_logic": 0,
                    "wrapper": {
                        "width": "50",
                        "class": "",
                        "id": ""
                    },
                    "wpml_cf_preferences": 2,
                    "default_value": "",
                    "placeholder": "",
                    "maxlength": "",
                    "rows": 2,
                    "new_lines": "br"
                },
                {
                    "key": "field_5f568de628543",
                    "label": "Path",
                    "name": "path",
                    "type": "text",
                    "instructions": "Please use the following path structure:<br> \/wp-content\/themes\/swisst2\/webar\/models\/<strong>model-name\/...<\/strong>",
                    "required": 0,
                    "conditional_logic": 0,
                    "wrapper": {
                        "width": "",
                        "class": "",
                        "id": ""
                    },
                    "wpml_cf_preferences": 1,
                    "default_value": "",
                    "placeholder": "",
                    "prepend": "",
                    "append": "",
                    "maxlength": ""
                },
                {
                    "key": "field_5f0368e19a6a3",
                    "label": "Images",
                    "name": "images",
                    "type": "gallery",
                    "instructions": "Select up to two images.",
                    "required": 0,
                    "conditional_logic": 0,
                    "wrapper": {
                        "width": "",
                        "class": "",
                        "id": ""
                    },
                    "wpml_cf_preferences": 2,
                    "return_format": "id",
                    "preview_size": "medium",
                    "insert": "append",
                    "library": "all",
                    "min": "",
                    "max": 2,
                    "min_width": "",
                    "min_height": "",
                    "min_size": "",
                    "max_width": "",
                    "max_height": "",
                    "max_size": "",
                    "mime_types": ""
                }
            ]
        }
    ],
    "location": [
        [
            {
                "param": "page_template",
                "operator": "==",
                "value": "page-webar.php"
            }
        ]
    ],
    "menu_order": 2,
    "position": "normal",
    "style": "default",
    "label_placement": "top",
    "instruction_placement": "label",
    "hide_on_screen": [
        "the_content",
        "excerpt",
        "discussion",
        "comments",
        "featured_image",
        "categories",
        "send-trackbacks"
    ],
    "active": true,
    "description": "",
    "modified": 1604067005
}